<svg width="1072" height="370" viewBox="0 0 1072 370" fill="none" xmlns="http://www.w3.org/2000/svg">
<path d="M1022.39 -153.965C1033.93 -67.8629 1063.47 14.8952 1069.93 101.833C1076.39 188.771 1054.24 286.158 986.857 333.389C961.474 350.943 931.937 360.557 902.401 365.154C797.638 381.455 690.568 341.748 601.036 279.888C511.503 218.029 436.277 135.689 359.205 57.1103C282.133 -21.4681 200.908 -98.7926 104.452 -146.023C58.7628 -168.594 9.84292 -184.059 -40 -192" stroke="#DEE0EC" stroke-miterlimit="10"/>
<path d="M1015.47 -155.219C1023.32 -73.2965 1047.31 6.11788 1050.55 90.1299C1052.85 151.154 1040.85 218.029 1008.55 268.185C996.549 286.576 981.78 302.877 964.243 315.834C939.783 333.388 911.17 343.002 882.094 348.435C780.563 366.826 676.723 332.553 589.036 275.709C528.579 236.419 474.582 187.099 421.509 136.107C397.972 113.536 374.896 90.1299 351.359 67.5595C275.21 -6.4212 195.369 -79.566 100.76 -124.289C55.9938 -145.605 8.45839 -160.234 -40 -167.758" stroke="#DEE0EC" stroke-miterlimit="10"/>
<path d="M1008.55 -156.891C1012.24 -79.5661 1031.62 -3.07757 1031.16 77.5907C1031.16 136.524 1017.78 201.31 985.471 250.63C973.472 268.603 959.165 284.486 942.089 297.443C918.091 314.998 890.4 325.029 862.71 330.881C763.947 351.779 663.799 322.521 577.959 270.693C518.885 235.165 465.812 189.189 413.661 141.54C390.586 120.224 367.511 98.4892 344.435 77.1727C269.671 7.78966 190.753 -60.7574 98.4509 -103.39C54.6076 -123.453 8.45669 -137.246 -38.6172 -144.351" stroke="#DEE0EC" stroke-miterlimit="10"/>
<path d="M1001.63 -158.562C1001.16 -85.4177 1015.47 -12.6909 1011.78 65.4695C1009.01 122.313 994.703 185.009 961.936 233.494C950.398 251.048 936.091 266.931 919.015 279.47C895.94 296.607 869.172 307.056 841.943 313.744C746.411 336.732 649.494 312.908 565.038 266.513C507.349 234.33 455.199 191.697 403.971 147.392C380.896 127.747 358.282 107.685 335.668 87.622C261.827 22.8366 184.293 -41.5308 93.8375 -81.6559C51.3787 -100.465 6.15086 -113.84 -40 -120.527" stroke="#DEE0EC" stroke-miterlimit="10"/>
<path d="M994.702 -159.816C990.087 -91.2691 999.317 -21.4681 992.395 53.7665C987.318 108.521 971.165 169.126 938.86 216.357C927.322 233.494 913.015 248.959 896.862 261.498C874.248 278.634 848.404 289.502 822.098 296.607C729.796 321.685 636.11 303.713 553.5 261.916C497.196 233.494 445.968 193.787 395.664 153.243C373.05 134.853 350.897 116.462 328.283 97.6534C255.365 37.0477 179.216 -23.1399 90.6064 -60.3393C49.0706 -77.894 5.22727 -90.4332 -39.5391 -96.7027" stroke="#DEE0EC" stroke-miterlimit="10"/>
<path d="M987.78 -161.488C979.011 -97.1208 983.164 -31.0815 973.011 41.2273C965.627 93.8916 948.09 151.989 915.784 198.802C904.247 215.521 890.401 230.986 874.248 243.525C852.096 260.662 827.175 271.529 802.253 279.47C713.182 306.638 622.726 294.099 541.501 257.318C486.581 232.24 436.738 196.294 386.895 158.677C364.743 141.958 342.59 124.821 320.438 107.685C248.904 52.0946 173.678 -3.9134 87.3759 -38.6049C46.7631 -54.9058 3.84275 -66.6089 -39.5391 -72.4605" stroke="#DEE0EC" stroke-miterlimit="10"/>
<path d="M980.395 -162.742C967.935 -102.554 967.011 -39.8588 953.166 29.5243C943.475 79.6807 924.553 136.107 892.247 181.665C880.709 197.966 867.326 213.013 851.634 225.552C830.405 242.689 806.406 253.974 781.947 262.334C696.106 292.009 608.881 284.486 529.501 252.72C475.966 231.404 427.046 198.384 378.126 164.111C356.435 148.646 334.283 133.181 312.592 117.716C241.981 66.7236 168.14 15.3133 83.6838 -17.2884C43.994 -32.3353 2.45822 -43.2025 -39.5391 -48.6362" stroke="#DEE0EC" stroke-miterlimit="10"/>
<path d="M973.471 -164.414C956.857 -108.824 950.858 -49.4721 934.243 17.4031C921.783 65.4697 901.476 119.388 869.171 164.529C857.633 180.412 844.249 195.04 829.481 207.58C808.713 224.298 785.637 236.002 762.562 245.197C679.952 276.963 595.957 274.873 518.424 248.123C466.273 230.15 418.276 200.474 370.28 169.962C348.589 156.169 327.359 141.958 305.668 127.747C235.981 81.7706 163.524 34.122 81.3751 4.02811C42.6083 -9.7649 2.45708 -19.7962 -38.6172 -24.8118" stroke="#DEE0EC" stroke-miterlimit="10"/>
<path d="M966.553 -166.086C945.786 -114.676 935.171 -58.6676 914.864 4.86385C900.096 50.8406 878.405 102.669 846.1 146.556C834.562 162.021 821.64 176.65 806.871 189.189C787.027 205.908 764.413 218.029 742.26 227.642C662.881 261.498 582.117 265.259 505.968 243.107C455.202 228.478 408.128 202.564 361.054 174.978C339.825 162.857 318.595 150.318 297.366 137.36C228.601 95.9814 157.529 52.5125 77.226 25.3444C39.8438 12.3874 0.615527 3.60997 -39.0742 -0.987699" stroke="#DEE0EC" stroke-miterlimit="10"/>
<path d="M959.627 -167.34C934.706 -120.109 919.014 -67.8629 895.478 -6.83921C878.402 36.6297 855.326 86.7861 822.559 129.837C811.021 144.884 798.561 159.095 784.254 171.634C764.871 188.353 743.641 200.474 721.95 210.923C645.801 246.869 568.729 256.064 493.965 239.345C445.045 227.642 398.433 204.654 352.282 180.829C331.514 169.962 310.285 159.095 289.517 147.392C221.675 110.61 151.987 71.3213 73.5306 46.661C37.0714 34.9579 -0.772344 26.5984 -39.5391 22.4187" stroke="#DEE0EC" stroke-miterlimit="10"/>
<path d="M952.704 -169.012C923.629 -126.379 903.323 -77.0584 876.094 -18.9605C856.71 22.4185 832.25 70.4851 799.483 112.282C787.946 126.911 775.946 141.122 761.64 153.243C743.179 169.962 722.411 182.501 702.105 192.95C629.187 230.986 555.345 245.615 481.965 233.911C434.43 226.388 388.74 206.743 343.513 186.263C322.745 177.068 302.438 167.454 281.67 157.423C215.213 125.239 146.448 90.1297 70.2994 67.9773C34.7633 57.5281 -1.69592 50.0046 -39.0781 46.2429" stroke="#DEE0EC" stroke-miterlimit="10"/>
<path d="M945.782 -170.683C913.014 -132.23 887.17 -86.6715 856.71 -31.4994C835.019 7.78978 808.713 53.3485 776.408 94.7276C765.332 108.939 752.871 122.732 739.487 134.853C721.488 151.154 701.643 164.111 682.26 175.396C612.111 215.521 542.423 235.166 470.428 228.896C424.738 224.716 379.972 208.833 334.744 191.279C314.438 183.337 294.131 175.396 273.825 167.036C208.291 139.45 140.91 108.939 66.6074 88.876C32.4557 79.6807 -3.54196 72.9932 -39.0781 69.6494" stroke="#DEE0EC" stroke-miterlimit="10"/>
<path d="M938.397 -171.938C901.477 -138.082 871.017 -95.449 836.865 -43.2027C812.867 -6.00338 785.177 37.4655 752.871 78.0087C741.795 91.8017 729.795 105.177 716.873 117.716C699.336 134.017 680.876 147.392 661.954 159.095C595.035 201.728 528.578 226.388 458.428 225.134C414.123 224.298 370.28 211.759 325.975 197.966C306.13 191.697 285.824 185.009 265.979 177.904C201.368 154.915 135.372 128.583 63.3768 111.446C30.1482 103.505 -4.46497 97.6533 -39.0781 94.7275" stroke="#DEE0EC" stroke-miterlimit="10"/>
<path d="M931.479 -173.609C890.404 -143.933 855.33 -105.062 817.486 -55.3238C791.18 -20.2143 762.105 21.1648 729.338 60.4539C718.262 73.829 706.724 87.204 693.802 99.3252C677.187 115.626 659.189 129.419 641.651 141.54C578.424 186.263 515.659 216.357 446.433 220.537C403.974 223.044 360.592 213.849 317.211 203.4C297.366 198.802 277.982 193.368 258.137 187.935C194.911 169.544 129.838 147.392 59.6886 132.763C27.383 126.075 -5.84559 121.06 -39.0742 118.552" stroke="#DEE0EC" stroke-miterlimit="10"/>
<path d="M924.553 -175.281C879.325 -149.785 839.174 -114.258 798.099 -67.863C769.024 -34.8433 739.026 4.02795 706.259 42.8992C695.183 55.8563 683.645 68.8133 671.646 80.9345C655.493 96.8174 638.417 111.028 621.803 123.985C561.345 170.798 502.272 205.908 434.43 215.521C393.356 221.373 350.897 215.939 308.439 208.833C289.055 205.49 269.672 202.146 250.288 197.548C187.985 183.755 124.297 165.782 55.9932 153.661C24.6106 148.228 -7.23345 144.048 -39.5391 141.958" stroke="#DEE0EC" stroke-miterlimit="10"/>
<path d="M917.63 -176.535C868.249 -155.637 823.482 -123.453 778.716 -79.5661C747.333 -49.0543 715.489 -11.8549 683.184 25.7625C672.107 38.3016 661.031 51.2586 649.032 63.3798C633.802 79.2626 617.649 93.8916 601.497 107.267C544.27 156.587 488.427 196.294 421.97 211.341C382.28 220.119 340.744 218.447 299.208 214.685C280.287 213.013 260.903 210.923 241.981 207.997C180.601 198.802 118.297 185.009 52.3012 175.396C22.3031 171.216 -8.61798 167.454 -39.5391 165.783" stroke="#DEE0EC" stroke-miterlimit="10"/>
<path d="M910.707 -178.207C857.633 -161.488 807.329 -132.648 759.794 -91.6871C726.103 -63.2651 692.875 -28.1557 660.108 8.62573C649.031 20.7469 638.417 33.2859 626.879 45.4071C612.111 61.29 596.881 75.9189 582.113 90.1299C528.116 141.54 475.504 186.263 410.893 206.744C373.049 218.865 331.975 220.955 291.362 220.537C272.44 220.537 253.98 219.701 235.058 218.447C175.062 214.267 113.681 204.236 49.5315 197.548C19.995 193.787 -9.54157 191.279 -39.0781 190.025" stroke="#DEE0EC" stroke-miterlimit="10"/>
<path d="M903.784 -179.879C846.557 -167.758 791.637 -141.844 740.41 -104.226C704.412 -77.8941 669.799 -44.8744 637.032 -9.34696C625.955 2.3562 615.341 14.4773 604.726 26.5985C590.419 42.0634 576.574 57.5283 562.267 72.1572C511.501 125.657 462.12 174.978 399.355 201.31C362.895 216.357 322.744 222.209 283.054 225.134C264.594 226.388 246.134 227.224 227.673 227.224C168.6 227.224 108.604 221.791 46.3004 217.611C18.1484 215.521 -10.0036 213.849 -38.6172 213.013" stroke="#DEE0EC" stroke-miterlimit="10"/>
<path d="M896.866 -181.133C835.485 -173.191 775.95 -150.621 721.031 -115.93C682.725 -91.6872 646.728 -60.7575 613.961 -26.0659C603.346 -14.7807 592.731 -2.65959 582.117 9.04358C568.733 24.5085 555.349 39.9734 541.965 55.4383C494.43 111.028 448.279 165.364 386.898 197.13C351.824 215.521 312.595 225.134 273.829 230.986C255.83 233.912 237.831 236.001 219.371 237.673C161.221 242.271 102.609 241.017 42.6128 239.345C15.3838 238.509 -11.8452 237.673 -39.0742 237.255" stroke="#DEE0EC" stroke-miterlimit="10"/>
<path d="M889.481 -182.805C778.719 -176.535 670.265 -126.379 589.962 -43.6206C515.659 33.2859 463.509 136.942 374.899 192.95C341.209 214.267 303.365 227.642 265.06 237.255C165.836 261.916 62.9192 261.916 -39.0742 261.916" stroke="#DEE0EC" stroke-miterlimit="10"/>
</svg>
