<svg width="36" height="36" viewBox="0 0 36 36" fill="none" xmlns="http://www.w3.org/2000/svg">
<g clip-path="url(#clip0)">
<path d="M0 6.74341H36V29.2448L0 29.2451V6.74341Z" fill="white"/>
<path d="M0 6.74369H10.2823C8.49135 8.01072 7.04154 9.69187 6.03056 11.6535C5.01929 13.6148 4.4954 15.7833 4.4954 17.9884C4.4954 20.1934 5.01929 22.3743 6.03056 24.3356C7.04182 26.2972 8.49135 27.9784 10.2823 29.2451H0V6.74341V6.74369ZM17.994 6.74369C15.0579 6.74369 12.2436 7.92537 10.1604 10.033C8.08931 12.1406 6.9197 15.0037 6.9197 17.9884C6.9197 20.973 8.08931 23.8362 10.1604 25.9438C12.2315 28.0514 15.0579 29.2331 17.994 29.2331C20.9298 29.2331 23.744 28.0514 25.8275 25.9438C27.8986 23.8362 29.0682 20.9733 29.0682 17.9884C29.0682 15.0037 27.8986 12.1406 25.8275 10.033C23.7564 7.92537 20.9301 6.74369 17.994 6.74369ZM36 6.74369H25.7177C27.5087 8.01072 28.9585 9.69187 29.9694 11.6535C30.9807 13.6148 31.5043 15.7833 31.5043 18.0007C31.5043 20.2058 30.9804 22.3864 29.9694 24.348C28.9582 26.3093 27.5087 27.9904 25.7177 29.2575H36V6.74369Z" fill="#3345A3"/>
<path d="M22.8856 14.6961C22.3862 13.2707 21.0217 13.1 19.4256 13.356L18.9262 11.3335L17.708 11.6381L18.1954 13.6118C17.8787 13.6971 17.5496 13.7822 17.233 13.8676L16.7456 11.8818L15.5274 12.1864L16.0268 14.2087C15.7711 14.2817 15.503 14.355 15.2593 14.4159V14.4038L13.5781 14.8303L13.9072 16.1461C13.9072 16.1461 14.7966 15.9025 14.7842 15.9269C15.2713 15.805 15.503 16.0487 15.6127 16.2924L16.1852 18.6072C16.234 18.5951 16.2705 18.5828 16.3191 18.5828L16.1852 18.6193L16.9769 21.86C16.989 22.0184 16.9648 22.2986 16.6237 22.3839C16.6481 22.396 15.7343 22.6032 15.7343 22.6032L15.8561 24.138L17.4399 23.736C17.7324 23.663 18.0247 23.59 18.3049 23.5288L18.8043 25.5755L20.0225 25.2709L19.5231 23.2363C19.8642 23.1633 20.1809 23.0779 20.4975 23.0049L20.997 25.0272L22.2152 24.7226L21.7157 22.6759C23.7259 22.0425 25.0294 21.1531 24.7248 19.155C24.4811 17.5468 23.5796 17.0353 22.3491 17.0474C22.9704 16.4991 23.2506 15.7438 22.8851 14.6961H22.8856ZM22.2643 19.5082C22.6419 21.0433 20.0104 21.5183 19.1943 21.7255L18.5241 19.0087C19.3526 18.8139 21.8744 17.9244 22.2643 19.5082ZM20.7659 15.8289C21.1071 17.2178 18.9141 17.6075 18.2319 17.7782L17.6226 15.3174C18.3049 15.1346 20.4001 14.367 20.7657 15.8289H20.7659Z" fill="white"/>
</g>
<defs>
<clipPath id="clip0">
<rect width="36" height="36" fill="white"/>
</clipPath>
</defs>
</svg>
