<svg width="36" height="36" viewBox="0 0 36 36" fill="none" xmlns="http://www.w3.org/2000/svg">
<g clip-path="url(#clip0)">
<path d="M17.952 0L9.528 11.592L6 28.728L17.952 36L29.904 28.728L26.304 11.52L17.952 0ZM7.944 27.936L10.608 14.904L16.656 33.264L7.944 27.936ZM11.472 11.952L17.952 3.024L24.432 11.952L17.952 31.536L11.472 11.952ZM19.176 33.264L25.224 14.904L27.888 27.936L19.176 33.264Z" fill="#3345A3"/>
</g>
<defs>
<clipPath id="clip0">
<rect width="23.904" height="36" fill="white" transform="translate(6)"/>
</clipPath>
</defs>
</svg>
