<svg width="78" height="32" viewBox="0 0 78 32" fill="none" xmlns="http://www.w3.org/2000/svg">
<path fill-rule="evenodd" clip-rule="evenodd" d="M7.20771 20.1619H11.3772C17.7836 20.1619 21.1027 18.922 22.7725 16.9518C23.5281 16.0605 23.921 15.0434 24.1252 13.9898C22.6573 12.8408 20.6775 12.1471 18.2235 12C14.3835 11.7696 11.7957 12.7899 10.0859 14.1478C7.63623 16.0933 7.02726 18.6587 7.02726 18.6587L4.20569 18.3421V0H17.137C22.9106 0 27.2029 4.65897 27.2029 10.4326C27.2029 11.2291 27.1887 12.0514 27.1201 12.8766C29.0518 14.9673 30.0678 17.8017 30.0678 21.0889C30.0678 26.7797 25.8445 32 18.4507 32H4.20569V23.0144H0L0.560883 20.1576H7.20771V20.1619ZM26.2688 16.6456C25.9498 17.4008 25.5227 18.1255 24.9523 18.7987C22.9473 21.1646 19.0696 23.0187 11.3772 23.0187H7.06249V29.1432H18.4507C23.9714 29.1432 27.211 25.3379 27.211 21.0889C27.211 19.4424 26.9001 17.9364 26.2688 16.6456ZM7.06249 13.0556C7.43149 12.6647 7.84525 12.279 8.309 11.911C10.4335 10.2235 13.6236 8.86179 18.3945 9.14795C20.7256 9.28793 22.7101 9.84644 24.3461 10.733V10.4326C24.3461 6.26735 21.3022 2.8568 17.137 2.8568H7.06249V13.0556Z" fill="#3345A3"/>
<path d="M43.9132 21.6749C44.7374 21.3806 45.2435 20.6393 45.2435 19.6385C45.2435 18.1553 44.1603 17.1902 42.3834 17.1902H38.0986V26.4891H42.689C44.4193 26.4891 45.632 25.4063 45.632 23.9232C45.632 22.8047 45.0435 21.922 43.9132 21.6749ZM39.9351 18.9676H41.7239C42.8424 18.9676 43.3718 19.309 43.3718 20.027C43.3718 20.6979 42.8657 21.0159 41.783 21.0159H39.9351V18.9676ZM42.0653 24.7117H39.9351V22.6048H42.1124C43.219 22.6048 43.737 22.9223 43.737 23.617C43.737 24.3469 43.2071 24.7117 42.0653 24.7117Z" fill="#3345A3"/>
<path d="M47.5121 19.6111C48.1478 19.6111 48.6187 19.1403 48.6187 18.5046C48.6187 17.869 48.1478 17.4219 47.5121 17.4219C46.8646 17.4219 46.3937 17.869 46.3937 18.5046C46.3937 19.1403 46.8646 19.6111 47.5121 19.6111ZM46.6294 26.4851H48.383V20.3644H46.6294V26.4851Z" fill="#3345A3"/>
<path d="M51.1946 17.1895H49.4524V26.4883H51.1946V17.1895Z" fill="#3345A3"/>
<path d="M54.0329 17.1895H52.2908V26.4883H54.0329V17.1895Z" fill="#3345A3"/>
<path d="M55.9781 19.6111C56.6137 19.6111 57.0846 19.1403 57.0846 18.5046C57.0846 17.869 56.6137 17.4219 55.9781 17.4219C55.331 17.4219 54.8601 17.869 54.8601 18.5046C54.8601 19.1403 55.331 19.6111 55.9781 19.6111ZM55.0953 26.4851H56.8494V20.3644H55.0953V26.4851Z" fill="#3345A3"/>
<path d="M60.9346 26.6719C62.853 26.6719 64.2066 25.3187 64.2066 23.4118C64.2066 21.5168 62.853 20.1746 60.9346 20.1746C59.0158 20.1746 57.6741 21.5168 57.6741 23.4118C57.6741 25.3187 59.0158 26.6719 60.9346 26.6719ZM60.9346 25.1654C60.0519 25.1654 59.4277 24.4355 59.4277 23.4118C59.4277 22.3995 60.0519 21.6815 60.9346 21.6815C61.8288 21.6815 62.453 22.3995 62.453 23.4118C62.453 24.4355 61.8288 25.1654 60.9346 25.1654Z" fill="#3345A3"/>
<path d="M64.9414 26.4838H66.6831V23.3528C66.6831 22.3405 67.213 21.6815 68.0606 21.6815C68.8138 21.6815 69.2609 22.2229 69.2609 23.1175V26.4838H71.0269V23.0233C71.0269 21.1516 70.285 20.1746 68.7548 20.1746C67.7782 20.1746 67.0954 20.5869 66.6831 21.2459V20.3631H64.9414V26.4838Z" fill="#3345A3"/>
<path d="M74.7836 26.6719C76.561 26.6719 77.6318 25.9186 77.6318 24.7064C77.6318 22.0462 73.7242 23.3056 73.7242 22.1167C73.7242 21.6815 74.1008 21.3873 74.7483 21.3873C75.4545 21.3873 75.8782 21.752 75.9134 22.3524H77.6318C77.5261 20.9987 76.4901 20.1746 74.8541 20.1746C73.0533 20.1746 71.9701 20.9516 71.9701 22.1876C71.9701 24.7769 75.8901 23.5175 75.8901 24.7654C75.8901 25.1301 75.5016 25.4596 74.8307 25.4596C74.1008 25.4596 73.5713 25.1182 73.5475 24.5297H71.8173C71.8525 25.8715 72.9709 26.6719 74.7836 26.6719Z" fill="#3345A3"/>
<path d="M42.0891 14.9975C44.5017 14.9975 45.9263 13.7734 45.9263 12.0312C45.9263 8.08836 40.2646 10.2776 40.2646 8.17073C40.2646 7.44082 40.8764 7.01706 41.9948 7.01706C43.0895 7.01706 43.7251 7.52319 43.7956 8.38261H45.8201C45.8201 6.49903 44.2546 5.32202 42.0301 5.32202C39.7818 5.32202 38.3696 6.42856 38.3696 8.19406C38.3696 12.1255 44.0193 9.97147 44.0193 12.055C44.0193 12.8202 43.3485 13.3025 42.1358 13.3025C40.9002 13.3025 40.1936 12.6907 40.1584 11.6546H38.0986C38.0986 13.7615 39.7346 14.9975 42.0891 14.9975Z" fill="#3345A3"/>
<path d="M46.6874 14.8117H48.4295V11.6811C48.4295 10.6689 48.959 10.0094 49.8065 10.0094C50.5598 10.0094 51.0069 10.5508 51.0069 11.4454V14.8117H52.7728V11.6811C52.7728 10.6689 53.3023 10.0094 54.1498 10.0094C54.9031 10.0094 55.3502 10.5508 55.3502 11.4454V14.8117H57.1276V11.3512C57.1276 9.47995 56.3743 8.50293 54.844 8.50293C53.9027 8.50293 53.0671 8.83241 52.4667 9.66802C52.1253 8.89145 51.4778 8.50293 50.5007 8.50293C49.5242 8.50293 48.8414 8.91478 48.4295 9.57423V8.69148H46.6874V14.8117Z" fill="#3345A3"/>
<path d="M59.9594 15.0003C61.0069 15.0003 61.6663 14.5294 61.9725 13.7642C62.1253 14.5998 62.7962 15.0707 64.1499 14.765V13.5171C63.6671 13.5642 63.5733 13.3876 63.5733 12.8815V10.8098C63.5733 9.36235 62.561 8.50293 60.7717 8.50293C59.0062 8.50293 57.9701 9.37378 57.9701 10.845H59.689C59.689 10.3156 60.077 10.0094 60.7484 10.0094C61.4778 10.0094 61.843 10.3037 61.8311 10.8098V10.9983L60.4303 11.1631C58.7 11.3631 57.723 12.0692 57.723 13.1757C57.723 14.1056 58.3825 15.0003 59.9594 15.0003ZM60.3127 13.7056C59.7713 13.7056 59.4771 13.4585 59.4771 13.0814C59.4771 12.6343 60.0537 12.4577 61.1602 12.3168L61.7606 12.2577C61.6544 13.0814 61.1483 13.7056 60.3127 13.7056Z" fill="#3345A3"/>
<path d="M64.7212 14.8067H66.44V11.4995C66.44 10.393 68.9654 10.4158 70.201 10.4158L70.1939 8.69604C69.005 8.69604 66.84 9.01601 66.44 9.83972V8.68652H64.7212V14.8067Z" fill="#3345A3"/>
<path d="M71.9288 14.7918V13.2497C70.6223 13.3673 70.5752 13.2735 70.5752 12.2612V10.2719H72.1759V8.68306H70.5752V7.03516H68.833V13.1559C68.7978 14.8856 69.7276 14.9566 71.9288 14.7918Z" fill="#3345A3"/>
</svg>
