<svg width="97" height="157" viewBox="0 0 97 157" fill="none" xmlns="http://www.w3.org/2000/svg">
<path d="M131.2 -47.7C134.9 -32.3 138.7 -16.6 137.8 -0.700012C136.9 15.2 130.6 31.5 117.8 40.8C105.9 49.4 90.6 51 76.3 54.2C56.1 58.7 35.5999 68.1 24.2999 85.5C17.6999 95.6 14.8 107.7 13.7 119.7C12.6 131.7 13.1 143.8 13.1 155.8" stroke="white" stroke-miterlimit="10"/>
<path d="M130.1 -53.8C132.9 -39 135.8 -23.6 134.3 -7.99998C133.2 3.30002 129.5 14.9 122.8 24C120.2 27.5 117.2 30.6 113.7 33.3C102 42.1 87.0998 44.2 73.1998 48C53.6998 53.3 33.1998 62.6 23.3998 80.9C20.2998 86.8 20.3998 92.5 19.4998 97.3C18.7998 101.4 19.0998 108.3 18.8998 115.7C18.7998 119.8 18.6998 123.9 18.2998 128C17.2998 139.8 15.6998 147.6 14.7998 155.7" stroke="white" stroke-miterlimit="10"/>
<path d="M128.9 -59.8C130.7 -45.5 132.7 -30.5 130.7 -15.1C129.2 -3.99999 125.3 7.50001 118.5 16.7C115.9 20.2 112.9 23.3 109.4 26C97.9999 34.9 83.2999 37.7 69.8999 42C51.0999 48 30.7999 57.6 22.3999 76.5C19.2999 83.4 22.4999 89.4 21.7999 93.4C22.5999 95.7 23.7999 103.4 23.9999 112C24.0999 116.6 23.9999 121.4 23.4999 126C21.7999 141.1 18.1999 148.2 16.5999 155.9" stroke="white" stroke-miterlimit="10"/>
<path d="M127.7 -65.9C128.5 -52.2 129.7 -37.6 127 -22.4C125.1 -11.5 120.9 -0.0999861 114.1 9.10001C111.5 12.6 108.5 15.8 105.1 18.5C93.8999 27.5 79.5999 31 66.4999 35.9C48.3999 42.7 28.4999 52.6 21.1999 72C18.1999 80 24.0999 86.2 23.9999 89.3C26.0999 89.8 28.3999 98.2 28.8999 108C29.1999 113.1 29.0999 118.6 28.3999 123.7C25.7999 142 20.4999 148.4 18.0999 155.7" stroke="white" stroke-miterlimit="10"/>
<path d="M126.5 -72C126.4 -58.9 126.6 -44.6 123.4 -29.7C121.1 -18.9 116.7 -7.7 109.8 1.5C107.2 5 104.2 8.2 100.8 11C89.8 20.2 75.9 24.2 63.2 29.7C45.9 37.2 26.5 47.7 20.2 67.4C17.3 76.4 25.9 82.9 26.3 85.2C29.7 84 33.1 93.1 34 104.1C34.5 109.7 34.5 115.8 33.6 121.5C30.2 143.1 23 148.8 19.8 155.7" stroke="white" stroke-miterlimit="10"/>
<path d="M125.4 -78.1C124.3 -65.6 123.7 -51.6 119.9 -37C117.2 -26.4 112.5 -15.3 105.6 -6.10001C103 -2.70001 99.9998 0.599992 96.6998 3.49999C85.8998 12.8 72.3998 17.5 60.0998 23.5C43.4998 31.7 24.7998 42.7 19.2998 62.8C16.4998 72.9 27.7998 79.6 28.6998 81.1C33.2998 78.1 37.8998 87.9 39.1998 100.2C39.7998 106.4 39.8998 113.1 38.7998 119.3C34.4998 144.2 25.5998 149.2 21.5998 155.7" stroke="white" stroke-miterlimit="10"/>
<path d="M124.2 -84.2C122.1 -72.3 120.6 -58.7 116.3 -44.2C113.2 -33.8 108.3 -22.8 101.3 -13.6C98.6998 -10.2 95.6998 -6.90001 92.3998 -3.90001C81.7998 5.49999 68.6998 10.8 56.7998 17.5C40.8998 26.4 22.8998 38 18.1998 58.4C15.5998 69.7 29.4998 76.5 30.9998 77.1C36.8998 72.3 42.5998 82.9 44.2998 96.4C45.0998 103.1 45.1998 110.5 43.8998 117.2C38.6998 145.3 27.9998 149.7 23.2998 155.7" stroke="white" stroke-miterlimit="10"/>
<path d="M123 -90.3C120 -79 117.6 -65.7 112.6 -51.5C109.1 -41.3 104 -30.4 96.9 -21.2C94.3 -17.8 91.3 -14.5 88 -11.4C77.6 -1.89998 64.9 4.00002 53.4 11.3C38.3 20.9 21 33.1 17.1 53.8C14.7 66.2 31.2 73.2 33.2 73C40.4 66.4 47.2 77.7 49.3 92.5C50.3 99.7 50.4 107.7 49 115C42.9 146.4 30.5 150 24.9 155.7" stroke="white" stroke-miterlimit="10"/>
<path d="M121.8 -96.4C117.8 -85.7 114.5 -72.7 109 -58.8C105.1 -48.7 99.7 -38 92.6 -28.8C90 -25.4 87.1 -22 83.8 -19C73.6 -9.29999 61.3 -2.89999 50.2 5.00001C35.8 15.2 19.4 28.2 16.1 49.1C14 62.6 33 69.7 35.5 68.7C44 60.3 51.9 72.4 54.3 88.4C55.5 96.2 55.6 104.8 54 112.6C47 147.3 32.8 150.2 26.5 155.5" stroke="white" stroke-miterlimit="10"/>
<path d="M120.7 -102.5C115.7 -92.3 111.6 -79.8 105.5 -66C101.1 -56.1 95.5999 -45.5 88.4999 -36.3C85.8999 -32.9 82.9999 -29.5 79.6999 -26.4C69.6999 -16.6 57.7999 -9.60001 47.0999 -1.10001C33.4999 9.79999 17.8999 23.4 15.1999 44.6C13.2999 59.2 35.0999 66.9 37.9999 64.7C48.9999 55.9 56.7999 67.3 59.5999 84.5C60.9999 92.8 61.0999 102.1 59.3999 110.4C51.4999 148.3 35.5999 150.6 28.3999 155.4" stroke="white" stroke-miterlimit="10"/>
<path d="M119.5 -108.5C113.6 -98.9 108.5 -86.7 101.9 -73.2C97.0998 -63.5 91.2998 -53 84.1998 -43.8C81.5998 -40.4 78.6998 -37 75.4998 -33.8C65.6998 -23.9 54.1998 -16.3 43.8998 -7.10001C30.9998 4.39999 16.2998 18.7 14.2998 40.2C12.7998 56 36.9998 63.7 40.3998 60.7C52.4998 49.8 61.4998 62.3 64.7998 80.7C66.2998 89.5 66.4998 99.4 64.5998 108.3C55.5998 149.4 37.8998 151 29.9998 155.4" stroke="white" stroke-miterlimit="10"/>
<path d="M118.3 -114.6C111.4 -105.6 105.5 -93.7 98.1998 -80.5C92.9998 -71 86.9998 -60.6 79.7998 -51.4C77.1998 -48 74.2998 -44.6 71.0998 -41.3C61.3998 -31.3 50.3998 -23.1 40.4998 -13.3C28.2998 -1.20001 14.5998 13.8 13.0998 35.6C11.8998 52.5 38.5998 60.4 42.4998 56.6C55.6998 43.7 65.9998 57.1 69.6998 76.8C71.3998 86.2 71.5998 96.7 69.4998 106.2C59.6998 150.6 40.2998 151.5 31.6998 155.6" stroke="white" stroke-miterlimit="10"/>
<path d="M117.1 -120.7C109.2 -112.3 102.4 -100.8 94.5999 -87.8C88.9999 -78.4 82.6999 -68.3 75.4999 -59C72.8999 -55.6 69.9999 -52.2 66.8999 -48.8C57.3999 -38.7 46.7999 -29.9 37.2999 -19.5C25.7999 -6.8 13.0999 9 12.0999 31C11.2999 49 40.3999 57 44.8999 52.4C59.2999 37.6 70.7999 51.9 74.7999 72.8C76.6999 82.7 76.8999 93.9 74.6999 103.9C63.9999 151.6 42.8999 151.8 33.3999 155.4" stroke="white" stroke-miterlimit="10"/>
<path d="M116 -126.8C107.2 -119 99.4998 -107.8 91.0998 -95C85.0998 -85.8 78.5998 -75.8 71.2998 -66.5C68.6998 -63.1 65.7998 -59.7 62.6998 -56.3C53.3998 -46.1 43.0998 -36.8 34.0998 -25.6C23.2998 -12.3 11.5998 4.1 11.1998 26.5C10.7998 45.6 42.2998 53.8 47.2998 48.4C62.7998 31.6 75.5998 46.8 79.9998 69C82.0998 79.4 82.2998 91.2 79.8998 101.8C68.2998 152.7 45.3998 152.2 35.1998 155.5" stroke="white" stroke-miterlimit="10"/>
<path d="M114.8 -132.9C105 -125.7 96.3999 -114.8 87.4999 -102.3C81.0999 -93.3 74.2999 -83.4 66.9999 -74.1C64.2999 -70.7 61.4999 -67.3 58.3999 -63.8C49.2999 -53.4 39.3999 -43.6 30.7999 -31.8C20.6999 -17.9 10.0999 -0.799982 10.0999 21.8C10.0999 42.1 43.9999 50.3 49.4999 44.1C66.1999 25.5 80.1999 41.5 84.9999 64.9C87.2999 75.9 87.4999 88.3 84.9999 99.4C72.3999 153.6 47.8999 152.4 36.8999 155.3" stroke="white" stroke-miterlimit="10"/>
<path d="M113.6 -139C102.8 -132.4 93.4 -121.9 83.8 -109.6C77 -100.7 70 -90.9 62.7 -81.6C60 -78.2 57.2 -74.7 54.2 -71.2C45.3 -60.7 35.7 -50.4 27.6 -37.9C18.1 -23.4 8.59996 -5.6 9.09996 17.3C9.59996 38.7 45.7 47.1 51.9 40.1C69.8 19.6 84.9 36.4 90.2 61C92.6 72.5 92.9 85.6 90.2 97.2C76.7 154.6 50.4 152.8 38.6 155.2" stroke="white" stroke-miterlimit="10"/>
<path d="M112.4 -145.1C100.7 -139 90.3998 -128.9 80.1998 -116.8C72.9998 -108.2 65.7998 -98.5 58.3998 -89.2C55.6998 -85.8 52.8998 -82.3 49.8998 -78.7C41.1998 -68.1 31.9998 -57.2 24.2998 -44C15.4998 -28.9 6.99978 -10.5 8.09978 12.8C9.09978 35.3 47.4998 43.8 54.1998 36C73.2998 13.6 89.5998 31.3 95.2998 57.1C97.8998 69.1 98.1998 82.8 95.3998 95C80.8998 155.7 52.9998 153.2 40.3998 155.2" stroke="white" stroke-miterlimit="10"/>
<path d="M111.3 -151.2C98.5998 -145.7 87.3998 -135.9 76.6998 -124.1C68.9998 -115.6 61.4998 -106 54.0998 -96.8C51.3998 -93.5 48.5998 -89.9 45.6998 -86.2C37.1998 -75.5 28.2998 -64 21.0998 -50.2C12.8998 -34.5 5.59979 -15.4 7.09979 8.2C8.59979 31.7 49.2998 40.5 56.4998 31.9C76.7998 7.69999 94.2998 26.2 100.3 53.2C103.1 65.8 103.5 80.1 100.4 92.8C84.9998 156.7 55.2998 153.5 41.8998 155.2" stroke="white" stroke-miterlimit="10"/>
<path d="M110.1 -157.2C96.3998 -152.3 84.3998 -142.9 73.0998 -131.3C64.9998 -123 57.2998 -113.6 49.7998 -104.3C47.0998 -101 44.2998 -97.4 41.3998 -93.7C33.0998 -82.9 24.4998 -70.9 17.7998 -56.4C10.1998 -40 3.99983 -20.3 5.99983 3.7C7.99983 28.3 50.9998 37.3 58.7998 27.8C80.2998 1.7 98.8998 21 105.4 49.3C108.4 62.4 108.8 77.3 105.5 90.6C89.0998 157.8 57.7998 153.9 43.5998 155.1" stroke="white" stroke-miterlimit="10"/>
<path d="M108.9 -163.3C94.2999 -159 81.2999 -150 69.3999 -138.6C60.9999 -130.5 52.9999 -121.2 45.4999 -111.9C42.7999 -108.6 39.9999 -105 37.1999 -101.2C28.9999 -90.2 20.7999 -77.7 14.4999 -62.5C7.59986 -45.6 2.49986 -25.2 4.99986 -0.899994C7.59986 24.8 52.6999 33.9 61.0999 23.7C83.7999 -4.2 103.6 15.9 110.5 45.4C113.6 59 114 74.6 110.7 88.4C93.2999 158.8 60.2999 154.3 45.3999 155.1" stroke="white" stroke-miterlimit="10"/>
<path d="M107.7 -169.4C92.0998 -165.7 78.2998 -157 65.7998 -145.9C56.9998 -137.9 48.7998 -128.7 41.1998 -119.4C38.4998 -116.1 35.6998 -112.5 32.8998 -108.6C24.8998 -97.6 16.9998 -84.5 11.2998 -68.6C4.99979 -51.1 1.09979 -30.2 3.99979 -5.39999C7.19979 21.4 54.4998 30.7 63.3998 19.6C87.2998 -10.2 108.3 10.7 115.6 41.4C118.9 55.6 119.4 71.8 115.8 86.1C97.4998 159.7 62.7998 154.5 46.9998 154.9" stroke="white" stroke-miterlimit="10"/>
<path d="M106.5 -175.5C78.1999 -170.1 55.1999 -149.4 36.8999 -127C18.2999 -104.1 -4.60011 -66.1 2.89989 -10C6.59989 17.8 56.1999 27.4 65.6999 15.5C102.4 -30.6 132.7 36.7 120.9 83.9C101.7 160.8 65.1999 154.9 48.6999 154.9" stroke="white" stroke-miterlimit="10"/>
</svg>
