<svg width="93" height="160" viewBox="0 0 93 160" fill="none" xmlns="http://www.w3.org/2000/svg">
<path d="M125.6 148.2C105 150.7 85.2001 157.1 64.4001 158.5C43.6001 159.9 20.3 155.1 9.00005 140.5C4.80005 135 2.50005 128.6 1.40005 122.2C-2.49995 99.5 7.00005 76.3 21.8 56.9C36.6 37.5 56.3 21.2 75.1 4.5C93.9 -12.2 112.4 -29.8 123.7 -50.7C129.1 -60.6 132.8 -71.2 134.7 -82" stroke="white" stroke-miterlimit="10"/>
<path d="M125.9 146.7C106.3 148.4 87.3 153.6 67.2 154.3C52.6 154.8 36.6 152.2 24.6 145.2C20.2 142.6 16.3 139.4 13.2 135.6C8.99995 130.3 6.69995 124.1 5.39995 117.8C0.999954 95.8 9.19995 73.3 22.8 54.3C32.2 41.2 44 29.5 56.2 18C61.6 12.9 67.2 7.9 72.6 2.8C90.3 -13.7 107.8 -31 118.5 -51.5C123.6 -61.2 127.1 -71.5 128.9 -82" stroke="white" stroke-miterlimit="10"/>
<path d="M126.3 145.2C107.8 146 89.5002 150.2 70.2002 150.1C56.1002 150.1 40.6002 147.2 28.8002 140.2C24.5002 137.6 20.7002 134.5 17.6002 130.8C13.4002 125.6 11.0002 119.6 9.60016 113.6C4.60016 92.2 11.6002 70.5 24.0002 51.9C32.5002 39.1 43.5002 27.6 54.9002 16.3C60.0002 11.3 65.2002 6.29999 70.3002 1.29999C86.9002 -14.9 103.3 -32 113.5 -52C118.3 -61.5 121.6 -71.5 123.3 -81.7" stroke="white" stroke-miterlimit="10"/>
<path d="M126.7 143.7C109.2 143.6 91.8 146.7 73.1 145.9C59.5 145.3 44.5 142.2 32.9 135.1C28.7 132.6 24.9 129.5 21.9 125.8C17.8 120.8 15.3 115 13.7 109.1C8.20004 88.4 13.9 67.4 25 49.1C32.7 36.6 42.9 25.3 53.5 14.2C58.2 9.2 63 4.3 67.8 -0.599998C83.3 -16.6 98.7 -33.4 108.3 -53C112.8 -62.2 116 -72 117.6 -82" stroke="white" stroke-miterlimit="10"/>
<path d="M127 142.2C110.6 141.2 93.9001 143.2 75.9001 141.7C62.8001 140.6 48.3001 137.1 37.0001 130.1C32.9001 127.6 29.2001 124.5 26.2001 121C22.1001 116.1 19.5001 110.5 17.8001 104.8C11.8001 84.8 16.1001 64.5 26.1001 46.6C32.9001 34.4 42.4001 23.3 52.1001 12.4C56.5001 7.50001 60.9001 2.70001 65.4001 -2.19999C79.9001 -18 94.3001 -34.5 103.2 -53.7C107.4 -62.7 110.4 -72.2 111.9 -81.9" stroke="white" stroke-miterlimit="10"/>
<path d="M127.4 140.7C112 138.8 96.2 139.7 78.9 137.5C66.3 135.9 52.4 132.1 41.2 125.1C37.2 122.6 33.5 119.6 30.5 116.1C26.4 111.3 23.8 105.9 21.9 100.5C15.4 81.2 18.4 61.6 27.2 44C33.2 32.1 41.8 21.3 50.8 10.5C54.8 5.70001 58.9 0.900006 63 -3.89999C76.3 -19.4 89.7 -35.7 98 -54.4C101.9 -63.2 104.7 -72.5 106.1 -81.9" stroke="white" stroke-miterlimit="10"/>
<path d="M127.7 139.1C113.3 136.4 98.2999 136.2 81.6999 133.2C69.6999 131.1 56.1999 127 45.2999 120C41.3999 117.5 37.7999 114.6 34.7999 111.2C30.6999 106.6 27.9999 101.4 25.9999 96.1C18.8999 77.5 20.6999 58.6 28.2999 41.4C33.3999 29.8 41.2999 19.2 49.4999 8.60001C53.1999 3.90001 56.8999 -0.899991 60.5999 -5.59999C72.7999 -20.9 85.0999 -36.9 92.8999 -55.2C96.4999 -63.8 99.0999 -72.8 100.4 -81.9" stroke="white" stroke-miterlimit="10"/>
<path d="M128.1 137.6C114.8 134 100.6 132.7 84.6 129.1C73.1 126.4 60.2 122 49.4 115C45.6 112.5 42.1 109.6 39.1 106.4C35.1 101.9 32.3 96.9 30.1 91.9C22.5 74 23 55.8 29.4 39C33.7 27.7 40.8 17.3 48.1 6.89999C51.4 2.19999 54.8 -2.40001 58.2 -7.10001C69.2 -22.2 80.6 -37.9 87.8 -55.7C91.1 -64.1 93.5 -72.8 94.7 -81.7" stroke="white" stroke-miterlimit="10"/>
<path d="M128.5 136.1C116.2 131.6 102.8 129.3 87.6 124.9C76.6 121.7 64.2 117 53.7 110C50 107.5 46.5 104.7 43.5 101.5C39.5 97.2 36.6 92.3 34.3 87.5C26.2 70.3 25.3 52.8 30.6 36.3C34.1 25.3 40.3 15.1 46.9 4.90002C49.8 0.300017 52.8 -4.29999 55.9 -8.89999C65.8 -23.8 76.2 -39.2 82.7 -56.6C85.8 -64.7 87.9 -73.2 89 -81.8" stroke="white" stroke-miterlimit="10"/>
<path d="M128.8 134.6C117.5 129.2 105 125.8 90.4001 120.7C80.0001 117 68.0001 112 57.7001 104.9C54.1001 102.4 50.7001 99.7 47.7001 96.6C43.7001 92.4 40.8001 87.8 38.3001 83.1C29.7001 66.6 27.5001 49.9 31.5001 33.7C34.3001 23.1 39.8001 13 45.5001 3.00001C48.1001 -1.49999 50.7001 -6.09999 53.5001 -10.6C62.3001 -25.3 71.7001 -40.4 77.6001 -57.4C80.4001 -65.3 82.4001 -73.5 83.4001 -81.9" stroke="white" stroke-miterlimit="10"/>
<path d="M129.2 133.1C119 126.8 107.2 122.4 93.3001 116.5C83.4001 112.3 71.9 107 61.9 99.9C58.4 97.4 55 94.8 52.1 91.7C48.1 87.7 45.1 83.2 42.6 78.8C33.5 63 30 47 32.8 31.1C34.6 20.8 39.3 10.9 44.2 1.10001C46.4 -3.39999 48.7 -7.79999 51.1 -12.3C58.8 -26.7 67.2 -41.6 72.5 -58.1C75 -65.8 76.8 -73.7 77.7 -81.8" stroke="white" stroke-miterlimit="10"/>
<path d="M129.6 131.6C120.4 124.5 109.5 118.9 96.3001 112.3C86.9001 107.6 76.0001 101.9 66.1001 94.9C62.7001 92.5 59.4001 89.8 56.5001 86.9C52.6001 83 49.5001 78.7 46.8001 74.5C37.2001 59.3 32.5001 44.2 34.0001 28.6C35.0001 18.7 38.8001 9.00001 43.0001 -0.799988C44.9001 -5.19999 46.8001 -9.59998 48.8001 -14C55.4001 -28.2 62.7001 -42.8 67.5001 -58.9C69.7001 -66.3 71.3001 -74.1 72.1001 -81.8" stroke="white" stroke-miterlimit="10"/>
<path d="M129.9 130C121.8 122 111.6 115.4 99.1001 108C90.2001 102.8 79.8001 96.8 70.1001 89.8C66.8001 87.4 63.6001 84.8 60.6001 82C56.7001 78.2 53.5001 74.2 50.7001 70.1C40.5001 55.6 34.6001 41.2 34.9001 26C35.1001 16.4 38.1001 6.90002 41.4001 -2.69998C42.9001 -6.99998 44.5001 -11.4 46.2001 -15.7C51.7001 -29.7 58.0001 -44 62.1001 -59.6C64.0001 -66.8 65.4001 -74.3 66.1001 -81.8" stroke="white" stroke-miterlimit="10"/>
<path d="M130.3 128.5C123.2 119.6 113.9 112 102 103.8C93.6001 98.1 83.7001 91.8 74.3001 84.7C71.1001 82.3 67.9001 79.8 65.0001 77C61.1001 73.4 57.8001 69.5 54.9001 65.7C44.2001 52 37.0001 38.4 36.0001 23.4C35.4001 14.2 37.6001 4.80002 40.1001 -4.59998C41.2001 -8.89998 42.5001 -13.1 43.8001 -17.4C48.2001 -31.1 53.5001 -45.2 57.0001 -60.4C58.6001 -67.4 59.8001 -74.6 60.4001 -81.8" stroke="white" stroke-miterlimit="10"/>
<path d="M130.7 127C124.6 117.2 116.1 108.5 105 99.6C97.1001 93.3 87.8001 86.8 78.5001 79.7C75.4001 77.3 72.3001 74.8 69.4001 72.2C65.6001 68.7 62.2001 65 59.1001 61.4C47.9001 48.3 39.5001 35.5 37.2001 20.8C35.8001 11.9 37.1001 2.70001 38.8001 -6.49999C39.6001 -10.7 40.4001 -14.9 41.5001 -19.1C44.8001 -32.6 49.1001 -46.4 52.0001 -61.2C53.3001 -68 54.3001 -74.9 54.8001 -81.9" stroke="white" stroke-miterlimit="10"/>
<path d="M131 125.5C126 114.8 118.3 105.1 107.8 95.4C100.5 88.6 91.6 81.7 82.6 74.7C79.6 72.3 76.5 69.9 73.6 67.3C69.8 64 66.3 60.5 63.1 57C51.3 44.6 41.8 32.5 38.2 18.1C36.1 9.50001 36.5 0.500008 37.4 -8.49999C37.8 -12.6 38.3 -16.8 39 -20.9C41.2 -34.2 44.5 -47.7 46.8 -62C47.8 -68.5 48.7 -75.2 49.1 -81.9" stroke="white" stroke-miterlimit="10"/>
<path d="M131.4 124C127.4 112.5 120.5 101.6 110.7 91.3C103.9 84 95.5001 76.8 86.7001 69.7C83.8001 67.3 80.8001 65 77.9001 62.5C74.1001 59.3 70.6001 56 67.2001 52.8C54.9001 41.1 44.2001 29.7 39.3001 15.7C36.4001 7.50001 35.9001 -1.39998 36.0001 -10.2C36.0001 -14.3 36.2001 -18.3 36.5001 -22.4C37.5001 -35.4 39.9001 -48.7 41.5001 -62.6C42.4001 -69 43.0001 -75.4 43.3001 -81.8" stroke="white" stroke-miterlimit="10"/>
<path d="M131.8 122.5C128.9 110.1 122.7 98.2 113.7 87.1C107.4 79.3 99.5001 71.8 91.0001 64.7C88.2001 62.3 85.3001 60 82.4001 57.7C78.7001 54.6 75.0001 51.6 71.5001 48.5C58.7001 37.5 46.9001 26.8 40.6001 13.2C37.0001 5.29998 35.6001 -3.40001 34.9001 -12C34.6001 -16 34.4001 -20 34.4001 -24C34.4001 -36.8 35.7001 -49.8 36.7001 -63.3C37.2001 -69.4 37.6001 -75.5 37.8001 -81.7" stroke="white" stroke-miterlimit="10"/>
<path d="M132.1 121C130.2 107.7 124.8 94.8 116.5 82.9C110.7 74.6 103.3 66.8 95.0001 59.7C92.3001 57.4 89.4001 55.1 86.6001 52.8C82.9001 49.9 79.2001 47 75.5001 44.1C62.2001 33.8 49.2001 23.8 41.6001 10.5C37.2001 2.90002 34.9001 -5.59999 33.5001 -14C32.8001 -17.9 32.3001 -21.8 31.9001 -25.8C30.8001 -38.4 31.1001 -51.1 31.5001 -64.1C31.7001 -70 31.9001 -75.9 32.0001 -81.8" stroke="white" stroke-miterlimit="10"/>
<path d="M132.5 119.4C131 95.4 119 71.9 99.2001 54.5C80.8001 38.4 56.0001 27.1 42.6001 7.90002C37.5001 0.600017 34.3001 -7.59999 32.0001 -15.9C26.1001 -37.4 26.1001 -59.7 26.1001 -81.8" stroke="white" stroke-miterlimit="10"/>
</svg>
