<svg width="36" height="36" viewBox="0 0 36 36" fill="none" xmlns="http://www.w3.org/2000/svg">
<g opacity="0.9">
<g clip-path="url(#clip0)">
<path d="M34.875 19.125C34.5766 19.125 34.2905 19.0065 34.0795 18.7955C33.8685 18.5845 33.75 18.2984 33.75 18C33.7455 13.8242 32.0847 9.82073 29.132 6.868C26.1793 3.91527 22.1758 2.25447 18 2.25C17.7016 2.25 17.4155 2.13147 17.2045 1.9205C16.9935 1.70952 16.875 1.42337 16.875 1.125C16.875 0.826631 16.9935 0.540483 17.2045 0.329505C17.4155 0.118526 17.7016 0 18 0C22.7722 0.00565687 27.3472 1.9039 30.7217 5.27833C34.0961 8.65276 35.9943 13.2278 36 18C36 18.2984 35.8815 18.5845 35.6705 18.7955C35.4595 19.0065 35.1734 19.125 34.875 19.125Z" fill="#EFD358"/>
<path d="M29.25 19.125C28.9516 19.125 28.6655 19.0065 28.4545 18.7955C28.2435 18.5845 28.125 18.2984 28.125 18C28.122 15.3156 27.0543 12.742 25.1562 10.8438C23.258 8.94567 20.6844 7.87798 18 7.875C17.7016 7.875 17.4155 7.75647 17.2045 7.54549C16.9935 7.33452 16.875 7.04837 16.875 6.75C16.875 6.45163 16.9935 6.16548 17.2045 5.95451C17.4155 5.74353 17.7016 5.625 18 5.625C21.2809 5.62887 24.4262 6.9339 26.7462 9.25383C29.0661 11.5738 30.3711 14.7191 30.375 18C30.375 18.2984 30.2565 18.5845 30.0455 18.7955C29.8345 19.0065 29.5484 19.125 29.25 19.125Z" fill="#EFD358"/>
<path d="M30.7272 29.1376L19.5897 18.0001L21.0443 16.5455C21.2492 16.3333 21.3626 16.0491 21.36 15.7542C21.3575 15.4592 21.2392 15.177 21.0306 14.9684C20.822 14.7599 20.5398 14.6415 20.2449 14.639C19.9499 14.6364 19.6657 14.7498 19.4535 14.9547L18 16.4094L9.29141 7.70074C7.79087 8.96494 6.58462 10.5417 5.75701 12.3207C4.9294 14.0997 4.50041 16.038 4.50003 18.0001V19.1251H2.25003V18.0001C2.25106 15.743 2.73857 13.5127 3.67936 11.4611C4.62015 9.40943 5.99212 7.58467 7.70178 6.11111L6.86253 5.27299C6.65157 5.06208 6.36547 4.9436 6.06716 4.9436C5.76885 4.9436 5.48275 5.06208 5.27178 5.27299C3.57566 6.93892 2.22636 8.92435 1.30179 11.1146C0.377227 13.3049 -0.104282 15.6567 -0.114932 18.0341C-0.125581 20.4115 0.33484 22.7674 1.23975 24.9659C2.14465 27.1644 3.47611 29.1618 5.15725 30.8429C6.83838 32.524 8.83588 33.8553 11.0344 34.7601C13.2329 35.665 15.5889 36.1253 17.9663 36.1145C20.3437 36.1038 22.6954 35.6222 24.8857 34.6975C27.0759 33.7728 29.0613 32.4234 30.7272 30.7272C30.9377 30.5163 31.056 30.2305 31.056 29.9324C31.056 29.6344 30.9377 29.3485 30.7272 29.1376Z" fill="#435ADA"/>
<g opacity="0.25">
<mask id="mask0" mask-type="alpha" maskUnits="userSpaceOnUse" x="-1" y="4" width="33" height="33">
<path d="M30.7272 29.1374L19.5897 17.9999L21.0443 16.5452C21.2492 16.3331 21.3626 16.0489 21.36 15.7539C21.3575 15.4589 21.2392 15.1768 21.0306 14.9682C20.822 14.7596 20.5398 14.6413 20.2449 14.6387C19.9499 14.6362 19.6657 14.7496 19.4535 14.9545L18 16.4091L9.29141 7.70049C7.79087 8.9647 6.58462 10.5414 5.75701 12.3204C4.9294 14.0994 4.50041 16.0378 4.50003 17.9999V19.1249H2.25003V17.9999C2.25106 15.7428 2.73857 13.5125 3.67936 11.4608C4.62015 9.40919 5.99212 7.58443 7.70178 6.11087L6.86253 5.27274C6.65157 5.06184 6.36547 4.94336 6.06716 4.94336C5.76885 4.94336 5.48275 5.06184 5.27178 5.27274C3.57566 6.93868 2.22636 8.92411 1.30179 11.1144C0.377227 13.3047 -0.104282 15.6564 -0.114932 18.0338C-0.125581 20.4112 0.33484 22.7672 1.23975 24.9657C2.14465 27.1642 3.47611 29.1616 5.15725 30.8427C6.83838 32.5237 8.83588 33.8551 11.0344 34.7599C13.2329 35.6647 15.5889 36.125 17.9663 36.1143C20.3437 36.1035 22.6954 35.6219 24.8857 34.6972C27.0759 33.7726 29.0613 32.4232 30.7272 30.727C30.9377 30.5161 31.056 30.2302 31.056 29.9322C31.056 29.6341 30.9377 29.3483 30.7272 29.1374Z" fill="#435ADA"/>
</mask>
<g mask="url(#mask0)">
<path d="M30.1519 14.6523C32.2663 23.4527 34.4378 32.4245 33.9235 41.5105C33.4092 50.5966 29.809 59.9113 22.4945 65.2257C15.6942 70.1402 6.95099 71.0545 -1.22076 72.8832C-12.7641 75.4547 -24.4788 80.8264 -30.9362 90.7696C-34.7078 96.5413 -36.365 103.456 -36.9936 110.313C-37.6222 117.171 -37.3365 124.085 -37.3365 130.943" stroke="white" stroke-miterlimit="10"/>
<path d="M29.5233 11.1667C31.1234 19.6242 32.7806 28.4246 31.9234 37.3392C31.2948 43.7966 29.1804 50.4254 25.3517 55.6256C23.8659 57.6257 22.1516 59.3972 20.1515 60.9401C13.4655 65.9689 4.95091 67.1689 -2.99226 69.3404C-14.1356 72.3691 -25.8503 77.6836 -31.4505 88.1412C-33.222 91.5127 -33.1649 94.77 -33.6792 97.513C-34.0792 99.8559 -33.9078 103.799 -34.022 108.028C-34.0792 110.371 -34.1363 112.714 -34.3649 115.057C-34.9364 121.8 -35.8507 126.257 -36.365 130.886" stroke="white" stroke-miterlimit="10"/>
<path d="M28.8377 7.73804C29.8664 15.9098 31.0093 24.4815 29.8664 33.2819C29.0092 39.625 26.7805 46.1967 22.8947 51.454C21.4089 53.4541 19.6945 55.2256 17.6945 56.7685C11.1799 61.8544 2.77959 63.4545 -4.87785 65.9117C-15.6211 69.3404 -27.2216 74.8264 -32.0218 85.6268C-33.7933 89.5698 -31.9646 92.9985 -32.3646 95.2843C-31.9075 96.5986 -31.2217 100.999 -31.1074 105.913C-31.0503 108.542 -31.1074 111.285 -31.3932 113.914C-32.3646 122.543 -34.4219 126.6 -35.3362 131" stroke="white" stroke-miterlimit="10"/>
<path d="M28.1519 4.2522C28.6091 12.0811 29.2948 20.4243 27.7519 29.1103C26.6661 35.3391 24.266 41.8537 20.3802 47.111C18.8944 49.1111 17.18 50.9397 15.2371 52.4826C8.83685 57.6257 0.665105 59.6258 -6.8209 62.4259C-17.1642 66.3118 -28.536 71.9691 -32.7076 83.0553C-34.422 87.6269 -31.0504 91.1699 -31.1076 92.9414C-29.9075 93.2271 -28.5932 98.0273 -28.3075 103.627C-28.136 106.542 -28.1932 109.685 -28.5932 112.599C-30.079 123.057 -33.1076 126.714 -34.4791 130.886" stroke="white" stroke-miterlimit="10"/>
<path d="M27.4662 0.766113C27.409 8.25212 27.5233 16.4239 25.6947 24.9385C24.3804 31.1102 21.866 37.5104 17.923 42.7678C16.4372 44.7678 14.7228 46.5965 12.7799 48.1965C6.49395 53.4539 -1.44922 55.7397 -8.70665 58.8827C-18.5927 63.1685 -29.6789 69.1688 -33.279 80.4264C-34.9362 85.5694 -30.0218 89.2839 -29.7932 90.5982C-27.8503 89.9125 -25.9073 95.1127 -25.393 101.399C-25.1073 104.599 -25.1073 108.085 -25.6216 111.342C-27.5645 123.685 -31.679 126.942 -33.5076 130.885" stroke="white" stroke-miterlimit="10"/>
<path d="M26.8375 -2.71948C26.2089 4.42365 25.866 12.424 23.6945 20.7671C22.1516 26.8245 19.4658 33.1676 15.5228 38.425C14.037 40.3679 12.3226 42.2537 10.4369 43.9109C4.26519 49.2254 -3.44939 51.9112 -10.4782 55.3399C-19.9643 60.0258 -30.6505 66.3118 -33.7934 77.7979C-35.3935 83.5696 -28.9361 87.3983 -28.4218 88.2555C-25.7931 86.5412 -23.1644 92.1414 -22.4216 99.1702C-22.0787 102.713 -22.0215 106.542 -22.6501 110.085C-25.1074 124.314 -30.1933 127.171 -32.4791 130.886" stroke="white" stroke-miterlimit="10"/>
<path d="M26.1517 -6.20557C24.9517 0.594698 24.0945 8.36643 21.6373 16.6525C19.8658 22.5956 17.0657 28.8815 13.0655 34.1389C11.5797 36.0818 9.8654 37.9676 7.97961 39.6819C1.92223 45.0536 -5.56378 48.0823 -12.364 51.911C-21.4501 56.9969 -31.7362 63.6257 -34.422 75.2833C-35.9078 81.7407 -27.9647 85.6266 -27.1075 85.9695C-23.7359 83.2265 -20.4786 89.2839 -19.5072 96.9984C-19.05 100.827 -18.9929 105.056 -19.7358 108.885C-22.7073 124.942 -28.8218 127.457 -31.5076 130.885" stroke="white" stroke-miterlimit="10"/>
<path d="M25.4662 -9.69116C23.7519 -3.23377 22.3804 4.36653 19.5231 12.4811C17.523 18.3099 14.6086 24.5387 10.5513 29.7961C9.06557 31.739 7.35122 33.6248 5.46543 35.3963C-0.477656 40.8251 -7.73508 44.1967 -14.3068 48.3682C-22.9357 53.8542 -32.8218 60.8259 -35.0504 72.6549C-36.4219 79.7409 -26.993 83.7411 -25.8501 83.6268C-21.7356 79.8552 -17.8498 86.3126 -16.6497 94.7701C-16.0783 98.8845 -16.0211 103.456 -16.8212 107.628C-20.307 125.571 -27.393 127.628 -30.5931 130.886" stroke="white" stroke-miterlimit="10"/>
<path d="M24.7805 -13.1772C22.4947 -7.06272 20.609 0.366139 17.466 8.30931C15.2373 14.081 12.1515 20.1955 8.09417 25.4528C6.6084 27.3958 4.9512 29.3387 3.06541 31.0531C-2.76339 36.5961 -9.79223 40.2534 -16.1353 44.7679C-24.3642 50.5967 -33.736 58.0255 -35.6218 69.9689C-36.8219 77.6834 -25.9643 81.7408 -24.5357 81.1693C-19.6783 76.3691 -15.1639 83.2837 -13.7924 92.4269C-13.1067 96.8842 -13.0495 101.799 -13.9638 106.256C-17.964 126.085 -26.0786 127.743 -29.6787 130.771" stroke="white" stroke-miterlimit="10"/>
<path d="M24.1518 -16.6631C21.2945 -10.8343 18.9516 -3.69115 15.4657 4.19487C12.9513 9.85223 9.80835 15.9096 5.75105 21.167C4.26527 23.1099 2.60806 25.0528 0.722276 26.8243C-4.99223 32.4245 -11.7925 36.4247 -17.907 41.282C-25.6788 47.5108 -34.5934 55.2826 -36.1363 67.3973C-37.2221 75.7405 -24.7644 80.1407 -23.1072 78.8835C-16.8213 73.8547 -12.3639 80.3693 -10.7639 90.1982C-9.96385 94.9413 -9.90671 100.256 -10.8782 104.999C-15.3926 126.657 -24.4787 127.971 -28.5932 130.714" stroke="white" stroke-miterlimit="10"/>
<path d="M23.4661 -20.0918C20.0946 -14.6059 17.1802 -7.63417 13.4086 0.0804192C10.6656 5.62349 7.35121 11.6237 3.29391 16.8811C1.80813 18.824 0.150927 20.7669 -1.67772 22.5956C-7.27794 28.2529 -13.8496 32.596 -19.7356 37.8533C-27.1073 44.425 -35.5076 52.5967 -36.6505 64.8829C-37.5077 73.9119 -23.6786 78.312 -21.7356 76.5977C-14.8211 70.3689 -9.67803 77.512 -7.79224 88.0267C-6.93506 93.0555 -6.82078 98.7128 -7.90653 103.799C-13.0496 127.285 -23.1643 128.2 -27.6787 130.714" stroke="white" stroke-miterlimit="10"/>
<path d="M22.7803 -23.5779C18.8373 -18.4348 15.4657 -11.6346 11.2941 -4.09141C8.32257 1.33737 4.89387 7.28046 0.779427 12.5378C-0.706346 14.4807 -2.36356 16.4237 -4.1922 18.3095C-9.73527 24.024 -16.0212 28.7099 -21.6786 34.3101C-28.6503 41.2246 -36.4792 49.7964 -37.3363 62.254C-38.0221 71.9116 -22.7644 76.426 -20.5357 74.2545C-12.9925 66.8828 -7.1066 74.5402 -4.99223 85.7978C-4.02077 91.1694 -3.90647 97.1697 -5.10652 102.598C-10.7067 127.971 -21.7929 128.485 -26.7074 130.828" stroke="white" stroke-miterlimit="10"/>
<path d="M22.0946 -27.0635C17.5801 -22.2633 13.6943 -15.6916 9.23695 -8.26275C6.03683 -2.89111 2.43669 2.88055 -1.67776 8.19504C-3.16353 10.138 -4.82073 12.0809 -6.59223 14.0238C-12.021 19.7955 -18.0784 24.8243 -23.5072 30.7673C-30.0789 38.0248 -37.3363 47.0537 -37.9077 59.6256C-38.3649 69.9117 -21.7357 74.4833 -19.1642 71.8547C-10.9353 63.3972 -4.36357 71.5689 -2.07777 83.5123C-0.992013 89.1696 -0.877726 95.5699 -2.13492 101.284C-8.24944 128.543 -20.3071 128.657 -25.7358 130.714" stroke="white" stroke-miterlimit="10"/>
<path d="M21.4658 -30.5491C16.437 -26.0918 12.0368 -19.6915 7.23664 -12.3769C3.80794 -7.11959 0.093507 -1.40508 -4.07808 3.90942C-5.56386 5.85235 -7.22107 7.79528 -8.99256 9.73822C-14.3071 15.567 -20.193 20.8815 -25.3361 27.2818C-31.5077 34.8821 -38.1937 44.2539 -38.4223 57.0544C-38.6509 67.9691 -20.6502 72.655 -17.7929 69.5691C-8.93542 59.9687 -1.62085 68.6548 0.893538 81.341C2.09359 87.2841 2.20788 94.0272 0.836394 100.085C-5.79244 129.171 -18.8787 128.886 -24.7075 130.772" stroke="white" stroke-miterlimit="10"/>
<path d="M20.7801 -34.0352C15.1799 -29.9207 10.2654 -23.6919 5.17951 -16.5488C1.52223 -11.4057 -2.36364 -5.74834 -6.53523 -0.433846C-8.07815 1.50909 -9.67821 3.45202 -11.4497 5.4521C-16.6499 11.3952 -22.3073 16.9954 -27.2217 23.7385C-32.9934 31.6817 -39.0508 41.4535 -39.0508 54.3683C-39.0508 65.9687 -19.6786 70.6546 -16.5356 67.1116C-6.99239 56.4827 1.00792 65.6259 3.75089 78.9978C5.06522 85.2838 5.17951 92.3698 3.75089 98.7129C-3.44939 129.685 -17.4499 129 -23.7359 130.657" stroke="white" stroke-miterlimit="10"/>
<path d="M20.0945 -37.521C13.9228 -33.7494 8.55118 -27.7492 3.06525 -20.7203C-0.820617 -15.6344 -4.82077 -10.0342 -8.99237 -4.71972C-10.5353 -2.77678 -12.1353 -0.776706 -13.8497 1.22337C-18.9356 7.22361 -24.4215 13.1096 -29.0503 20.2527C-34.4791 28.5387 -39.9079 38.7105 -39.6221 51.7968C-39.3364 64.0258 -18.707 68.826 -15.164 64.8259C-4.93506 53.1111 3.69384 62.7115 6.72253 76.7692C8.09401 83.3409 8.26545 90.8269 6.72253 97.4557C-0.992056 130.257 -16.0212 129.228 -22.7643 130.6" stroke="white" stroke-miterlimit="10"/>
<path d="M19.4087 -41.0066C12.7228 -37.5207 6.83681 -31.7491 1.00801 -24.8345C-3.10643 -19.9201 -7.22088 -14.377 -11.4496 -9.06249C-12.9925 -7.11955 -14.5926 -5.11948 -16.3069 -3.06225C-21.2786 2.99513 -26.5359 9.22394 -30.9361 16.7671C-35.9649 25.396 -40.8222 35.9107 -40.1936 49.2255C-39.6221 62.0832 -17.6784 66.9405 -13.8497 62.4832C-2.935 49.6827 6.37965 59.7974 9.63692 74.5408C11.1227 81.3982 11.2941 89.2271 9.69407 96.1988C1.40803 130.886 -14.5355 129.457 -21.7357 130.6" stroke="white" stroke-miterlimit="10"/>
<path d="M18.7802 -44.4927C11.5227 -41.3497 5.12249 -35.7495 -0.992034 -29.0064C-5.39221 -24.149 -9.67808 -18.6631 -13.9068 -13.4058C-15.4497 -11.52 -17.0498 -9.46274 -18.707 -7.34837C-23.5643 -1.23385 -28.6503 5.33784 -32.7647 13.2239C-37.4506 22.1956 -41.6222 33.1103 -40.765 46.5966C-39.9078 60.0257 -16.6498 65.0544 -12.5353 60.14C-0.934885 46.3109 9.06551 56.8827 12.4942 72.3119C14.0943 79.5122 14.3229 87.6839 12.5514 94.9413C3.75101 131.457 -13.2211 129.628 -20.8785 130.6" stroke="white" stroke-miterlimit="10"/>
<path d="M18.0944 -47.9214C10.2655 -45.1213 3.4081 -39.7496 -3.04929 -33.1208C-7.67804 -28.3778 -12.0782 -23.0061 -16.3641 -17.6916C-17.907 -15.8059 -19.5071 -13.7486 -21.1643 -11.6343C-25.9073 -5.46259 -30.8218 1.39482 -34.6505 9.68086C-38.9935 19.0527 -42.5365 30.3102 -41.3936 44.025C-40.2507 58.0827 -15.6784 63.2258 -11.221 57.797C1.06516 42.8821 11.6941 53.9112 15.4086 70.0832C17.1229 77.5692 17.3515 86.0838 15.4657 93.6841C6.09392 132.086 -11.7925 129.857 -19.9071 130.543" stroke="white" stroke-miterlimit="10"/>
<path d="M17.4086 -51.4072C9.06538 -48.95 1.63652 -43.8069 -5.16374 -37.2924C-9.96393 -32.6636 -14.5355 -27.3491 -18.8214 -22.0347C-20.3643 -20.1489 -21.9644 -18.0916 -23.5645 -15.9201C-28.2504 -9.63417 -32.9363 -2.49103 -36.5364 6.19502C-40.4794 15.8525 -43.3938 27.5101 -41.9652 41.3964C-40.4794 56.0827 -14.707 61.2829 -9.90679 55.4541C3.06515 39.5106 14.3799 50.9968 18.3229 67.8546C20.0944 75.6263 20.323 84.5409 18.4372 92.4269C8.49393 132.657 -10.3639 130.086 -18.8786 130.543" stroke="white" stroke-miterlimit="10"/>
<path d="M16.723 -54.8928C7.80833 -52.7785 -0.0776897 -47.8068 -7.22083 -41.4637C-12.2496 -36.8921 -16.9355 -31.6348 -21.2785 -26.3203C-22.8214 -24.4345 -24.4215 -22.3773 -26.0216 -20.1486C-30.5932 -13.8627 -35.1076 -6.37664 -38.3649 2.70942C-41.965 12.7098 -44.1937 24.6531 -42.5365 38.8251C-40.7078 54.14 -13.6782 59.4545 -8.59231 53.1114C5.06537 36.0822 17.0658 48.0255 21.2374 65.569C23.1232 73.6836 23.4089 82.9411 21.3517 91.1129C10.8942 133.172 -8.93518 130.2 -17.9641 130.429" stroke="white" stroke-miterlimit="10"/>
<path d="M16.0372 -58.3789C-0.134903 -55.2931 -13.2783 -43.464 -23.7358 -30.6635C-34.3648 -17.5773 -47.451 4.13782 -43.1652 36.1962C-41.0508 52.0825 -12.7068 57.5685 -7.27804 50.7682C13.6942 24.4243 31.0092 62.883 24.2661 89.8554C13.2942 133.8 -7.56376 130.428 -16.9927 130.428" stroke="white" stroke-miterlimit="10"/>
</g>
</g>
</g>
</g>
<defs>
<clipPath id="clip0">
<rect width="36" height="36" fill="white"/>
</clipPath>
</defs>
</svg>
