<svg width="36" height="36" viewBox="0 0 36 36" fill="none" xmlns="http://www.w3.org/2000/svg">
<g opacity="0.9">
<path d="M32.25 8.5C32.25 7.67157 31.5784 7 30.75 7H4.5C3.25928 7 2.25 5.99072 2.25 4.75C2.25 4.33581 1.91419 4 1.5 4C1.08581 4 1 4.08581 1 4.5V28.5C1 31.3995 3.10051 34 6 34H30.75C31.5784 34 32.25 33.3284 32.25 32.5V8.5Z" fill="#435ADA"/>
<g opacity="0.25">
<mask id="mask0" mask-type="alpha" maskUnits="userSpaceOnUse" x="1" y="4" width="32" height="30">
<path d="M32.25 8.5C32.25 7.67157 31.5784 7 30.75 7H4.5C3.25928 7 2.25 5.99072 2.25 4.75C2.25 4.33581 1.91419 4 1.5 4C1.08581 4 1 4.08581 1 4.5V28.5C1 31.3995 3.10051 34 6 34H30.75C31.5784 34 32.25 33.3284 32.25 32.5V8.5Z" fill="#435ADA"/>
</mask>
<g mask="url(#mask0)">
<path d="M36.1492 16.5693C38.2651 25.376 40.4381 34.3541 39.9235 43.4467C39.4088 52.5392 35.8061 61.8605 28.4863 67.1788C21.6812 72.0968 12.9317 73.0118 4.75416 74.8417C-6.79739 77.4151 -18.5205 82.7906 -24.9825 92.7409C-28.7568 98.5167 -30.4152 105.436 -31.0442 112.298C-31.6732 119.161 -31.3873 126.08 -31.3873 132.943" stroke="white" stroke-miterlimit="10"/>
<path d="M35.5201 13.0813C37.1213 21.5448 38.7797 30.3514 37.9219 39.2724C37.2929 45.7344 35.177 52.368 31.3456 57.5719C29.8587 59.5734 28.1432 61.3462 26.1417 62.8902C19.4509 67.9225 10.9302 69.1234 2.98138 71.2965C-8.16986 74.3274 -19.893 79.6456 -25.4972 90.1107C-27.2699 93.4846 -27.2128 96.7442 -27.7274 99.4891C-28.1277 101.834 -27.9562 105.78 -28.0705 110.011C-28.1277 112.356 -28.1849 114.701 -28.4137 117.045C-28.9855 123.793 -29.9005 128.254 -30.4152 132.886" stroke="white" stroke-miterlimit="10"/>
<path d="M34.834 9.65027C35.8633 17.8278 37.0071 26.4057 35.8633 35.2123C35.0055 41.56 32.7753 48.1364 28.8867 53.3975C27.3998 55.399 25.6843 57.1717 23.6827 58.7157C17.1636 63.8053 8.75723 65.4065 1.09433 67.8655C-9.65661 71.2966 -21.2653 76.7865 -26.069 87.5946C-27.8417 91.5404 -26.0118 94.9716 -26.4121 97.259C-25.9546 98.5743 -25.2684 102.978 -25.154 107.896C-25.0968 110.526 -25.154 113.271 -25.4399 115.902C-26.4121 124.537 -28.4708 128.597 -29.3857 133" stroke="white" stroke-miterlimit="10"/>
<path d="M34.1476 6.16174C34.6051 13.9962 35.2914 22.3453 33.7473 31.0376C32.6608 37.2709 30.259 43.79 26.3704 49.0511C24.8835 51.0527 23.168 52.8826 21.2236 54.4266C14.8188 59.5733 6.64124 61.5748 -0.850114 64.377C-11.2008 68.2656 -22.5807 73.927 -26.7553 85.021C-28.4709 89.5959 -25.0969 93.1414 -25.1541 94.9142C-23.9532 95.2001 -22.6379 100.004 -22.352 105.608C-22.1804 108.524 -22.2376 111.67 -22.6379 114.586C-24.1248 125.051 -27.1556 128.711 -28.5281 132.886" stroke="white" stroke-miterlimit="10"/>
<path d="M33.4616 2.67316C33.4044 10.1645 33.5188 18.3421 31.6888 26.8628C30.3735 33.0389 27.8574 39.4437 23.9115 44.7048C22.4247 46.7063 20.7091 48.5362 18.7648 50.1374C12.4744 55.3985 4.52552 57.686 -2.73709 60.8312C-12.6302 65.1201 -23.7243 71.1246 -27.327 82.3902C-28.9854 87.537 -24.0674 91.2541 -23.8387 92.5693C-21.8944 91.8831 -19.95 97.087 -19.4354 103.377C-19.1494 106.58 -19.1494 110.068 -19.6641 113.328C-21.6084 125.68 -25.7258 128.94 -27.5558 132.885" stroke="white" stroke-miterlimit="10"/>
<path d="M32.8324 -0.81488C32.2033 6.33335 31.8602 14.3394 29.6871 22.6885C28.1431 28.7502 25.4554 35.0978 21.5096 40.3589C20.0227 42.3033 18.3072 44.1904 16.42 45.8488C10.2439 51.1671 2.52385 53.8548 -4.51001 57.286C-14.0029 61.9752 -24.6966 68.2656 -27.8418 79.76C-29.443 85.5358 -22.981 89.3672 -22.4664 90.225C-19.8358 88.5094 -17.2053 94.1137 -16.4619 101.148C-16.1187 104.693 -16.0616 108.524 -16.6906 112.07C-19.1496 126.309 -24.2391 129.169 -26.5266 132.886" stroke="white" stroke-miterlimit="10"/>
<path d="M32.1462 -4.30334C30.9453 2.50177 30.0875 10.2791 27.6285 18.571C25.8557 24.5183 23.0536 30.8088 19.0506 36.0699C17.5638 38.0142 15.8482 39.9013 13.961 41.6169C7.89935 46.9924 0.407999 50.0232 -6.39712 53.8547C-15.4897 58.9442 -25.7831 65.5778 -28.4709 77.2437C-29.9577 83.7057 -22.0089 87.5944 -21.1511 87.9375C-17.7771 85.1925 -14.5175 91.2542 -13.5454 98.9743C-13.0879 102.806 -13.0307 107.038 -13.7741 110.869C-16.7478 126.938 -22.8667 129.454 -25.5544 132.886" stroke="white" stroke-miterlimit="10"/>
<path d="M31.4601 -7.79144C29.7445 -1.32944 28.372 6.27628 25.5127 14.3967C23.5112 20.2296 20.5947 26.4629 16.5345 31.724C15.0477 33.6683 13.3321 35.5555 11.445 37.3282C5.49768 42.7609 -1.76493 46.1348 -8.3413 50.3094C-16.9764 55.7992 -26.8695 62.7759 -29.0998 74.6134C-30.4722 81.7044 -21.0366 85.7075 -19.8929 85.5931C-15.7755 81.8188 -11.8868 88.2808 -10.6859 96.7443C-10.1141 100.862 -10.0569 105.437 -10.8575 109.611C-14.3458 127.568 -21.4369 129.626 -24.6393 132.886" stroke="white" stroke-miterlimit="10"/>
<path d="M30.7739 -11.28C28.4865 -5.16114 26.5993 2.27302 23.4541 10.2219C21.2239 15.9976 18.1358 22.1165 14.0756 27.3776C12.5888 29.3219 10.9304 31.2663 9.04328 32.9818C3.21032 38.5289 -3.82354 42.1888 -10.1712 46.7064C-18.4059 52.5394 -27.7844 59.9736 -29.6716 71.9254C-30.8725 79.6455 -20.0071 83.7057 -18.5775 83.1338C-13.7167 78.3302 -9.19901 85.2497 -7.82655 94.3995C-7.14032 98.86 -7.08314 103.778 -7.99811 108.238C-12.0011 128.082 -20.1215 129.74 -23.7242 132.771" stroke="white" stroke-miterlimit="10"/>
<path d="M30.1447 -14.7685C27.2854 -8.93554 24.9408 -1.7873 21.4524 6.10435C18.9362 11.7657 15.791 17.8274 11.7308 23.0885C10.244 25.0329 8.58559 26.9772 6.69846 28.75C0.97987 34.3542 -5.82525 38.3572 -11.9441 43.218C-19.7214 49.4512 -28.6424 57.2285 -30.1864 69.3519C-31.273 77.7011 -18.8064 82.1044 -17.148 80.8463C-10.8576 75.8139 -6.39711 82.3331 -4.7959 92.1691C-3.9953 96.9155 -3.93811 102.234 -4.91027 106.98C-9.42796 128.654 -18.5205 129.969 -22.6379 132.714" stroke="white" stroke-miterlimit="10"/>
<path d="M29.4585 -18.1995C26.0846 -12.7097 23.1681 -5.733 19.3938 1.98709C16.6489 7.53412 13.3321 13.5386 9.2719 18.7997C7.78507 20.744 6.12668 22.6884 4.29673 24.5183C-1.30748 30.1797 -7.88386 34.5258 -13.774 39.7869C-21.151 46.3633 -29.5573 54.5409 -30.701 66.8359C-31.5588 75.8712 -17.7198 80.2745 -15.7755 78.559C-8.85602 72.3257 -3.70929 79.4739 -1.82216 89.9961C-0.964368 95.0285 -0.849997 100.69 -1.93653 105.779C-7.08326 129.283 -17.2052 130.198 -21.7228 132.714" stroke="white" stroke-miterlimit="10"/>
<path d="M28.7723 -21.688C24.8265 -16.5413 21.4525 -9.7362 17.2779 -2.18767C14.3043 3.24499 10.8731 9.19232 6.75574 14.4534C5.26891 16.3977 3.61051 18.3421 1.78057 20.2292C-3.76646 25.9478 -10.0569 30.637 -15.7183 36.2412C-22.695 43.1607 -30.5294 51.7386 -31.3872 64.2051C-32.0735 73.8695 -16.8048 78.3872 -14.5746 76.2142C-7.02606 68.8372 -1.13591 76.5001 0.979962 87.7657C1.95212 93.1412 2.0665 99.1457 0.865592 104.578C-4.73862 129.969 -15.8327 130.484 -20.7507 132.828" stroke="white" stroke-miterlimit="10"/>
<path d="M28.0861 -25.1761C23.5685 -20.3725 19.6798 -13.7962 15.2193 -6.362C12.0169 -0.986528 8.41422 4.78925 4.29683 10.1075C2.81 12.0519 1.15161 13.9962 -0.62115 15.9405C-6.05381 21.7163 -12.1155 26.7486 -17.5482 32.6959C-24.1245 39.9586 -31.3871 48.9939 -31.959 61.5748C-32.4165 71.8683 -15.7754 76.4431 -13.202 73.8126C-4.96728 65.3491 1.6091 73.5267 3.89653 85.4785C4.98307 91.1399 5.09743 97.5447 3.83934 103.263C-2.27954 130.541 -14.3458 130.655 -19.7784 132.714" stroke="white" stroke-miterlimit="10"/>
<path d="M27.4568 -28.6642C22.4244 -24.2037 18.0211 -17.7989 13.2175 -10.4791C9.78632 -5.21798 6.06924 0.500606 1.89467 5.81889C0.407837 7.76321 -1.25055 9.70753 -3.02332 11.6518C-8.3416 17.4848 -14.2317 22.8031 -19.3785 29.2079C-25.5545 36.8136 -32.2453 46.1921 -32.474 59.0017C-32.7028 69.9242 -14.6892 74.6135 -11.8299 71.5254C-2.96613 61.9182 4.35366 70.6105 6.86984 83.3057C8.07074 89.2531 8.18512 96.001 6.81265 102.063C0.179094 131.17 -12.9165 130.884 -18.7494 132.772" stroke="white" stroke-miterlimit="10"/>
<path d="M26.7707 -32.1528C21.1665 -28.0354 16.2485 -21.8021 11.159 -14.6539C7.49906 -9.50717 3.61042 -3.84577 -0.564148 1.47252C-2.10817 3.41684 -3.70937 5.36116 -5.48213 7.36266C-10.686 13.31 -16.3474 18.9142 -21.2654 25.6621C-27.0412 33.611 -33.1029 43.3898 -33.1029 56.3138C-33.1029 67.9225 -13.7169 72.6117 -10.5717 69.0662C-1.02163 58.4296 6.98439 67.5794 9.72931 80.9609C11.0446 87.2513 11.159 94.3424 9.72931 100.69C2.52389 131.685 -11.4866 130.998 -17.7771 132.657" stroke="white" stroke-miterlimit="10"/>
<path d="M26.0845 -35.6412C19.9084 -31.867 14.533 -25.8625 9.04311 -18.8286C5.15447 -13.739 1.15146 -8.13483 -3.02311 -2.81654C-4.56713 -0.872225 -6.16833 1.12928 -7.88391 3.13079C-12.9735 9.1353 -18.4633 15.0254 -23.0953 22.1737C-28.528 30.4656 -33.9607 40.6447 -33.6747 53.7403C-33.3888 65.9781 -12.7447 70.7817 -9.19918 66.7787C1.03709 55.0556 9.67215 64.6628 12.703 78.7305C14.0755 85.3069 14.247 92.7982 12.703 99.4318C4.98291 132.256 -10.057 131.227 -16.8049 132.6" stroke="white" stroke-miterlimit="10"/>
<path d="M25.3982 -39.1293C18.7075 -35.641 12.8173 -29.8652 6.98436 -22.9457C2.86698 -18.0277 -1.25041 -12.4807 -5.48216 -7.16243C-7.02618 -5.21811 -8.62738 -3.21661 -10.343 -1.15791C-15.3181 4.90379 -20.5792 11.137 -24.9825 18.6856C-30.0149 27.3206 -34.8757 37.8429 -34.2467 51.1672C-33.6748 64.034 -11.7154 68.8948 -7.88397 64.4343C3.03853 51.6246 12.3598 61.7465 15.6194 76.5005C17.1063 83.3628 17.2778 91.1973 15.6766 98.1739C7.38466 132.886 -8.5702 131.456 -15.7756 132.6" stroke="white" stroke-miterlimit="10"/>
<path d="M24.7693 -42.6179C17.5067 -39.4726 11.1019 -33.8684 4.98296 -27.1205C0.579652 -22.2597 -3.70929 -16.7698 -7.94104 -11.5087C-9.48506 -9.62162 -11.0863 -7.56292 -12.7447 -5.44705C-17.6055 0.67184 -22.695 7.24821 -26.8124 15.1399C-31.5016 24.118 -35.6762 35.0405 -34.8184 48.5364C-33.9606 61.9751 -10.686 67.0074 -6.56858 62.0895C5.04015 48.2505 15.0477 58.8299 18.4788 74.27C20.08 81.4755 20.3088 89.653 18.536 96.9156C9.72939 133.457 -7.25481 131.627 -14.9177 132.6" stroke="white" stroke-miterlimit="10"/>
<path d="M24.083 -46.0489C16.2486 -43.2468 9.38627 -37.8713 2.92427 -31.2377C-1.70778 -26.4913 -6.11109 -21.1159 -10.4 -15.7976C-11.9441 -13.9104 -13.5453 -11.8517 -15.2036 -9.73586C-19.9501 -3.55979 -24.8681 3.30252 -28.6995 11.5945C-33.0456 20.973 -36.5912 32.2386 -35.4474 45.9632C-34.3037 60.0309 -9.7138 65.1776 -5.2533 59.745C7.04166 44.8195 17.6782 55.8563 21.3953 72.0399C23.1109 79.5313 23.3396 88.052 21.4525 95.6577C12.074 134.087 -5.82516 131.856 -13.9456 132.543" stroke="white" stroke-miterlimit="10"/>
<path d="M23.3968 -49.5374C15.0476 -47.0784 7.61345 -41.9316 0.808334 -35.4124C-3.99528 -30.7804 -8.57015 -25.4621 -12.8591 -20.1438C-14.4031 -18.2567 -16.0043 -16.198 -17.6055 -14.0249C-22.2948 -7.73449 -26.984 -0.586252 -30.5867 8.106C-34.5325 17.7704 -37.449 29.4363 -36.0194 43.3325C-34.5325 58.0293 -8.74171 63.2332 -3.93809 57.4002C9.0431 41.4454 20.3659 52.9397 24.3117 69.8095C26.0845 77.5868 26.3132 86.5078 24.4261 94.3995C14.4758 134.658 -4.39558 132.085 -12.9163 132.542" stroke="white" stroke-miterlimit="10"/>
<path d="M22.7106 -53.0255C13.7896 -50.9096 5.89795 -45.9344 -1.25028 -39.5868C-6.28264 -35.0119 -10.9719 -29.7508 -15.318 -24.4325C-16.862 -22.5454 -18.4632 -20.4867 -20.0644 -18.2564C-24.6393 -11.966 -29.157 -4.47465 -32.4166 4.61791C-36.0193 14.6254 -38.2495 26.5773 -36.5911 40.7594C-34.7612 56.0852 -7.71229 61.4035 -2.62274 55.0558C11.0447 38.0145 23.0537 49.9663 27.2283 67.5224C29.1154 75.6427 29.4013 84.9069 27.3427 93.0844C16.8776 135.173 -2.96586 132.2 -12.0012 132.428" stroke="white" stroke-miterlimit="10"/>
<path d="M22.0243 -56.514C5.84074 -53.4259 -7.31201 -41.5885 -17.777 -28.7788C-28.4136 -15.6833 -41.5092 6.04736 -37.2202 38.1286C-35.1043 54.0263 -6.74016 59.5161 -1.3075 52.711C19.6797 26.3483 37.007 64.8344 30.2591 91.8262C19.2794 135.802 -1.59343 132.428 -11.0291 132.428" stroke="white" stroke-miterlimit="10"/>
</g>
</g>
<path d="M35.25 16H27.75C25.6824 16 24 17.7945 24 20C24 22.2055 25.6824 24 27.75 24H35.25C35.6642 24 36 23.6418 36 23.2V16.8C36 16.3582 35.6642 16 35.25 16Z" fill="#24306F"/>
<path d="M3.27273 2H24.4848C25.3216 2 26 2.74619 26 3.66667V7H3.27273C2.01753 7 1 5.88072 1 4.5C1 3.11928 2.01753 2 3.27273 2Z" fill="#24306F"/>
<path d="M28 22C29.1046 22 30 21.1046 30 20C30 18.8954 29.1046 18 28 18C26.8954 18 26 18.8954 26 20C26 21.1046 26.8954 22 28 22Z" fill="#EFD358"/>
</g>
</svg>
